%!PS-Adobe-3.0 EPSF-3.0
%%Creator: cairo 1.12.2 (http://cairographics.org)
%%CreationDate: Wed Apr 30 00:09:57 2014
%%Pages: 1
%%DocumentData: Clean7Bit
%%LanguageLevel: 3
%%BoundingBox: 12 8 137 139
%%EndComments
%%BeginProlog
save
50 dict begin
/q { gsave } bind def
/Q { grestore } bind def
/cm { 6 array astore concat } bind def
/w { setlinewidth } bind def
/J { setlinecap } bind def
/j { setlinejoin } bind def
/M { setmiterlimit } bind def
/d { setdash } bind def
/m { moveto } bind def
/l { lineto } bind def
/c { curveto } bind def
/h { closepath } bind def
/re { exch dup neg 3 1 roll 5 3 roll moveto 0 rlineto
      0 exch rlineto 0 rlineto closepath } bind def
/S { stroke } bind def
/f { fill } bind def
/f* { eofill } bind def
/n { newpath } bind def
/W { clip } bind def
/W* { eoclip } bind def
/BT { } bind def
/ET { } bind def
/pdfmark where { pop globaldict /?pdfmark /exec load put }
    { globaldict begin /?pdfmark /pop load def /pdfmark
    /cleartomark load def end } ifelse
/BDC { mark 3 1 roll /BDC pdfmark } bind def
/EMC { mark /EMC pdfmark } bind def
/cairo_store_point { /cairo_point_y exch def /cairo_point_x exch def } def
/Tj { show currentpoint cairo_store_point } bind def
/TJ {
  {
    dup
    type /stringtype eq
    { show } { -0.001 mul 0 cairo_font_matrix dtransform rmoveto } ifelse
  } forall
  currentpoint cairo_store_point
} bind def
/cairo_selectfont { cairo_font_matrix aload pop pop pop 0 0 6 array astore
    cairo_font exch selectfont cairo_point_x cairo_point_y moveto } bind def
/Tf { pop /cairo_font exch def /cairo_font_matrix where
      { pop cairo_selectfont } if } bind def
/Td { matrix translate cairo_font_matrix matrix concatmatrix dup
      /cairo_font_matrix exch def dup 4 get exch 5 get cairo_store_point
      /cairo_font where { pop cairo_selectfont } if } bind def
/Tm { 2 copy 8 2 roll 6 array astore /cairo_font_matrix exch def
      cairo_store_point /cairo_font where { pop cairo_selectfont } if } bind def
/g { setgray } bind def
/rg { setrgbcolor } bind def
/d1 { setcachedevice } bind def
%%EndProlog
%%Page: 1 1
%%BeginPageSetup
%%PageBoundingBox: 12 8 137 139
%%EndPageSetup
q 12 8 125 131 rectclip q
0.925341 0.454213 0.343511 rg
98.812 68.142 m 98.812 53.232 86.723 41.142 71.812 41.142 c 56.898 41.142
 44.812 53.232 44.812 68.142 c 44.812 83.056 56.898 95.146 71.812 95.146
 c 86.723 95.146 98.812 83.056 98.812 68.142 c h
f
0.42332 0.564915 1 rg
20.141 116.451 m 20.141 114.279 18.379 112.517 16.207 112.517 c 14.035 
112.517 12.273 114.279 12.273 116.451 c 12.273 118.623 14.035 120.385 16.207
 120.385 c 18.379 120.385 20.141 118.623 20.141 116.451 c h
f
82.48 126.631 m 82.48 124.459 80.719 122.697 78.547 122.697 c 76.375 122.697
 74.613 124.459 74.613 126.631 c 74.613 128.803 76.375 130.564 78.547 130.564
 c 80.719 130.564 82.48 128.803 82.48 126.631 c h
f
0 g
0.8 w
0 J
0 j
[] 0.0 d
4 M q 1 0 0 -1 0 141.732269 cm
22.629 29 m 56.57 50.82 l 59.398 18.492 l S Q
59.117 120.053 m 60.574 118.318 l 59.465 124.037 l 57.383 118.596 l h
f*
0.398477 w
q -0.0875 -1 -1 0.0875 0 141.732269 cm
16.382 -60.551 m 17.976 -62.147 l 12.397 -60.55 l 17.978 -58.956 l h
S Q
0.8 w
q 1 0 0 -1 0 141.732269 cm
78.793 20.516 m 84.043 49.203 l 114.348 37.887 l S Q
111.352 102.724 m 110.41 100.666 l 115.098 104.123 l 109.293 103.662 l 
h
f*
0.374737 w
q -1 -0.373333 -0.373333 1 0 141.732269 cm
-84.949 -70.722 m -83.448 -72.22 l -88.695 -70.722 l -83.449 -69.225 l 
h
S Q
0.8 w
q 1 0 0 -1 0 141.732269 cm
118.391 90.82 m 94.551 88.801 l 95.359 114.258 l S Q
95.258 30.674 m 93.605 32.224 l 95.383 26.678 l 96.805 32.326 l h
f*
0.399799 w
q -0.0317459 1 1 0.0317459 0 141.732269 cm
-113.968 91.64 m -112.366 90.038 l -117.964 91.638 l -112.366 93.238 l 
h
S Q
0.8 w
q 1 0 0 -1 0 141.732269 cm
61.012 116.277 m 59.801 98.094 l 37.98 106.578 l S Q
40.965 36.314 m 41.875 38.385 l 37.234 34.865 l 43.035 35.4 l h
f*
0.372802 w
q 1 0.388889 0.388889 -1 0 141.732269 cm
-0.027 105.407 m 1.463 103.917 l -3.757 105.406 l 1.463 106.901 l h
S Q
0.8 w
q 1 0 0 -1 0 141.732269 cm
29.094 90.012 m 44.043 75.465 l 26.266 55.262 l S Q
28.379 84.068 m 30.637 83.924 l 25.734 87.068 l 28.234 81.81 l h
f*
0.300285 w
q 0.88 -1 -1 -0.88 0 141.732269 cm
46.572 12.605 m 47.773 11.404 l 43.57 12.607 l 47.773 13.806 l h
S Q
0.42332 0.564915 1 rg
129.598 50.103 m 129.598 47.931 127.836 46.17 125.664 46.17 c 123.492 46.17
 121.73 47.931 121.73 50.103 c 121.73 52.275 123.492 54.037 125.664 54.037
 c 127.836 54.037 129.598 52.275 129.598 50.103 c h
f
64.945 19.396 m 64.945 17.221 63.188 15.463 61.012 15.463 c 58.84 15.463
 57.078 17.221 57.078 19.396 c 57.078 21.568 58.84 23.33 61.012 23.33 c 
63.188 23.33 64.945 21.568 64.945 19.396 c h
f
136.465 13.334 m 136.465 11.162 134.703 9.4 132.531 9.4 c 130.359 9.4 128.598
 11.162 128.598 13.334 c 128.598 15.506 130.359 17.267 132.531 17.267 c 
134.703 17.267 136.465 15.506 136.465 13.334 c h
f
0 g
0.8 w
q 1 0 0 -1 0 141.732269 cm
126.066 123.145 m 109.5 109.004 l S Q
111.934 30.65 m 114.191 30.83 l 108.891 33.248 l 112.113 28.396 l h
f*
0.304226 w
q 1 -0.853658 -0.853658 -1 0 141.732269 cm
119.602 8.983 m 120.819 7.764 l 116.559 8.983 l 120.819 10.198 l h
S Q
0.8 w
q 1 0 0 -1 0 141.732269 cm
127.238 12.836 m 113.094 29.402 l S Q
115.172 114.764 m 114.996 117.021 l 112.574 111.724 l 117.43 114.943 l 
h
f*
0.304226 w
q 0.853658 1 1 -0.853658 0 141.732269 cm
41.272 79.939 m 42.492 78.723 l 38.232 79.938 l 42.491 81.157 l h
S Q
0.42332 0.564915 1 rg
136.465 134.146 m 136.465 131.974 134.703 130.213 132.531 130.213 c 130.359
 130.213 128.598 131.974 128.598 134.146 c 128.598 136.322 130.359 138.084
 132.531 138.084 c 134.703 138.084 136.465 136.322 136.465 134.146 c h
f
Q q
19 52.732 9 -9 re W n
q
19 52.732 9 -9 re W n
% Fallback Image: x=19 y=89 w=9 h=9 res=300ppi size=4332
[ 0.24 0 0 0.24 19 43.612269 ] concat
/DeviceRGB setcolorspace
8 dict dup begin
  /ImageType 1 def
  /Width 38 def
  /Height 38 def
  /Interpolate false def
  /BitsPerComponent 8 def
  /Decode [ 0 1 0 1 0 1 ] def
  /DataSource currentfile /ASCII85Decode filter /FlateDecode filter def
  /Interpolate false def
  /ImageMatrix [ 1 0 0 -1 0 38 ] def
end
image
Gb"/ffh2BD'ZU122PMTD>)7LhTkkCK;Cdp7"d;KP'XN`4$7cF/BI=Es/T[uj3gYE=d;d[(4$
 M07p\qd;k+$M-$iI&ob%>X5L\2c:=4&sb:(q]X)'_dVo]#'Cag>faGS8:bFA/B?Ya?A"@:$
 iO6kP@Bnf=H-0>eFUil#&qU='\$gWO+*\BTiYlgf"UYNW5jL_F#XKYU1$\/<pI']B2HlJOm
 ma*i?0hl6`QE5O@^ja,&-<t-OebJ^EBdesP8Q+BAh.j.ERG,^NI2iY)9c5-p%2&HiJflKu?
 \/""W,?$P`X5\CX`AB$K\<to`i(,-B[f7rUZWqK\pO3T,o#.)4hp*D%7(EtJ*j'3_fr=Ole
 =]m\k@115_%BbH_gAE[4%K1]8t+MmJnm(`PpoDfF[$'<irmcsW@k>tVH=$FI:]*V:^oq"q=
 ^L!:/E.REkZQ6ojRh.8kJ'U.S/Sn/r8@)]A`=h+5QV@9m0\d8n[&kaa[h.D"DO4T,"V!U3'
 ,u7nT-N2Kf(H5LSs<G@9+E&r"hos$;&80-5`Z~>
Q
Q Q
showpage
%%Trailer
end restore
%%EOF
