%!PS-Adobe-3.0 EPSF-3.0
%%Creator: cairo 1.12.2 (http://cairographics.org)
%%CreationDate: Tue Apr 29 23:59:06 2014
%%Pages: 1
%%DocumentData: Clean7Bit
%%LanguageLevel: 2
%%BoundingBox: 24 0 109 121
%%EndComments
%%BeginProlog
save
50 dict begin
/q { gsave } bind def
/Q { grestore } bind def
/cm { 6 array astore concat } bind def
/w { setlinewidth } bind def
/J { setlinecap } bind def
/j { setlinejoin } bind def
/M { setmiterlimit } bind def
/d { setdash } bind def
/m { moveto } bind def
/l { lineto } bind def
/c { curveto } bind def
/h { closepath } bind def
/re { exch dup neg 3 1 roll 5 3 roll moveto 0 rlineto
      0 exch rlineto 0 rlineto closepath } bind def
/S { stroke } bind def
/f { fill } bind def
/f* { eofill } bind def
/n { newpath } bind def
/W { clip } bind def
/W* { eoclip } bind def
/BT { } bind def
/ET { } bind def
/pdfmark where { pop globaldict /?pdfmark /exec load put }
    { globaldict begin /?pdfmark /pop load def /pdfmark
    /cleartomark load def end } ifelse
/BDC { mark 3 1 roll /BDC pdfmark } bind def
/EMC { mark /EMC pdfmark } bind def
/cairo_store_point { /cairo_point_y exch def /cairo_point_x exch def } def
/Tj { show currentpoint cairo_store_point } bind def
/TJ {
  {
    dup
    type /stringtype eq
    { show } { -0.001 mul 0 cairo_font_matrix dtransform rmoveto } ifelse
  } forall
  currentpoint cairo_store_point
} bind def
/cairo_selectfont { cairo_font_matrix aload pop pop pop 0 0 6 array astore
    cairo_font exch selectfont cairo_point_x cairo_point_y moveto } bind def
/Tf { pop /cairo_font exch def /cairo_font_matrix where
      { pop cairo_selectfont } if } bind def
/Td { matrix translate cairo_font_matrix matrix concatmatrix dup
      /cairo_font_matrix exch def dup 4 get exch 5 get cairo_store_point
      /cairo_font where { pop cairo_selectfont } if } bind def
/Tm { 2 copy 8 2 roll 6 array astore /cairo_font_matrix exch def
      cairo_store_point /cairo_font where { pop cairo_selectfont } if } bind def
/g { setgray } bind def
/rg { setrgbcolor } bind def
/d1 { setcachedevice } bind def
%%EndProlog
%%Page: 1 1
%%BeginPageSetup
%%PageBoundingBox: 24 0 109 121
%%EndPageSetup
q 24 0 85 121 rectclip q
0.925341 0.454213 0.343511 rg
108.527 28.142 m 108.527 13.232 96.438 1.142 81.527 1.142 c 66.613 1.142
 54.523 13.232 54.523 28.142 c 54.523 43.056 66.613 55.146 81.527 55.146
 c 96.438 55.146 108.527 43.056 108.527 28.142 c h
f
0.42332 0.564915 1 rg
32.352 103.783 m 32.352 101.611 30.59 99.849 28.418 99.849 c 26.246 99.849
 24.484 101.611 24.484 103.783 c 24.484 105.955 26.246 107.717 28.418 107.717
 c 30.59 107.717 32.352 105.955 32.352 103.783 c h
f
87.07 116.658 m 87.07 114.486 85.309 112.724 83.137 112.724 c 80.961 112.724
 79.203 114.486 79.203 116.658 c 79.203 118.83 80.961 120.592 83.137 120.592
 c 85.309 120.592 87.07 118.83 87.07 116.658 c h
f
0 g
1.001362 w
0 J
0 j
[] 0.0 d
4 M q 1 0 0 -1 0 141.732269 cm
33.781 44.387 m 63.109 89.449 l S Q
60.992 63.681 m 63.848 51.178 l 53.574 58.853 l 56.812 58.666 59.805 60.623
 60.992 63.681 c h
f*
q 1 0 0 -1 0 141.732269 cm
83.492 32.227 m 83.137 84.082 l S Q
78.977 98.83 m 83.484 110.834 l 87.828 98.767 l 85.227 100.709 81.652 100.724
 78.977 98.83 c h
f*
Q Q
showpage
%%Trailer
end restore
%%EOF
